Revisão: Aulas 01 - 04
…
---

# Manipulação de Tempo e Distância

```r
in1 %>%
  filter(!is.na(AIR_TIME), !is.na(DISTANCE)) %>%
  mutate(AIR_TIME=AIR_TIME/60, DISTANCE=DISTANCE*1.6) %>%
  select(AIR_TIME, DISTANCE)
```

```
## # A tibble: 5,714,008 x 2
##    AIR_TIME DISTANCE
##       <dbl>    <dbl>
##  1     2.82    2317.
##  2     4.38    3728 
##  3     4.43    3674.
##  4     4.3     3747.
##  5     3.32    2317.
##  6     3.43    2542.
##  7     2.57    2078.
##  8     3.8     3400 
##  9     2.88    2342.
## 10     3.1     2795.
## # … with 5,713,998 more rows
```
…
