Introdução a dados relacionais
…
---

## advisedBy

```r
advisedBy %>% as_tibble
```

```
## # A tibble: 113 x 2
##     p_id p_id_dummy
##    <int>      <int>
##  1    96          5
##  2   118          5
##  3   183          5
##  4   263          5
##  5   362          5
##  6   266          7
##  7   272          7
##  8     6         29
##  9   242         29
## 10   303         29
## # … with 103 more rows
```

`p_id` orienta `p_id_dummy`.

---

## course

```r
course %>% as_tibble
```

```
## # A tibble: 132 x 2
##    course_id courseLevel
##        <int> <fct>      
##  1         5 Level_300  
##  2        11 Level_300  
##  3        18 Level_300  
##  4       104 Level_300  
##  5       124 Level_300  
##  6       146 Level_300  
##  7       147 Level_300  
##  8       165 Level_300  
##  9         8 Level_400  
## 10        20 Level_400  
## # … with 122 more rows
```

`level_100` (introdução), `level_300` (graduação, segundo ano), `level_400` (graduação, avançado) e `level_500` (pós-graduação).

---

## taughtBy

```r
taughtBy %>% as_tibble
```

```
## # A tibble: 189 x 2
##    course_id  p_id
##        <int> <int>
##  1         0    40
##  2         1    40
##  3         2   180
##  4         3   279
##  5         4   107
##  6         7   415
##  7         8   297
##  8         9   235
##  9        11    52
## 10        11    57
## # … with 179 more rows
```

Qual curso em `course_id` e `p_id` de quem ensinou.

---

## person

```r
person %>% as_tibble
```

```
## # A tibble: 278 x 6
##     p_id professor student hasPosition inPhase       yearsInProgram
##    <int>     <int>   <int> <fct>       <fct>         <fct>         
##  1     3         0       1 0           0             0             
##  2     4         0       1 0           0             0             
##  3     5         1       0 Faculty     0             0             
##  4     6         0       1 0           Post_Quals    Year_2        
##  5     7         1       0 Faculty_adj 0             0             
##  6     9         0       1 0           Post_Generals Year_5        
##  7    13         0       1 0           Post_Generals Year_7        
##  8    14         0       1 0           Post_Generals Year_10       
##  9    15         0       1 0           Post_Quals    Year_3        
## 10    18         0       1 0           Pre_Quals     Year_3        
## # … with 268 more rows
```
…
---

## Exemplo: que professores dão quais aulas?

Todos os professores de todos os cursos:

```r
person %>% right_join(taughtBy, by = "p_id") %>% as_tibble
```

```
## # A tibble: 189 x 7
##     p_id professor student hasPosition inPhase yearsInProgram course_id
##    <int>     <int>   <int> <fct>       <fct>   <fct>              <int>
##  1    40         1       0 Faculty     0       0                      0
##  2    40         1       0 Faculty     0       0                      1
##  3   180         1       0 Faculty     0       0                      2
##  4   279         1       0 Faculty     0       0                      3
##  5   107         1       0 Faculty     0       0                      4
##  6   415         1       0 Faculty     0       0                      7
##  7   297         1       0 Faculty_eme 0       0                      8
##  8   235         1       0 Faculty     0       0                      9
##  9    52         1       0 Faculty     0       0                     11
## 10    57         1       0 0           0       0                     11
## # … with 179 more rows
```
---

## Exemplo: que professores dão quais aulas?

Agora vou incluir o nível do curso.

```r
person %>%
  right_join(taughtBy, by='p_id') %>%
  left_join(course, by='course_id') %>%
  as_tibble() %>% select(-professor, -student)
```

```
## # A tibble: 189 x 6
##     p_id hasPosition inPhase yearsInProgram course_id courseLevel
##    <int> <fct>       <fct>   <fct>              <int> <fct>      
##  1    40 Faculty     0       0                      0 Level_500  
##  2    40 Faculty     0       0                      1 Level_500  
##  3   180 Faculty     0       0                      2 Level_500  
##  4   279 Faculty     0       0                      3 Level_500  
##  5   107 Faculty     0       0                      4 Level_500  
##  6   415 Faculty     0       0                      7 Level_500  
##  7   297 Faculty_eme 0       0                      8 Level_400  
##  8   235 Faculty     0       0                      9 Level_500  
##  9    52 Faculty     0       0                     11 Level_300  
## 10    57 0           0       0                     11 Level_300  
## # … with 179 more rows
```
…
